{
"data":[
    {
        "id": "1",
        "name": "In Rainbows",
        "band": {
            "id": "1",
            "name": "Radiohead"
                },

        "year": 2007,
        "label": {
            "id": "SR",
            "name": "Self-released"
                },
        "genre": {
            "id": "AR",
            "description": "Alternative rock"
                }
        
    },
    {
        "id": "2",
        "name": "Maracucho Bueno Muere Chiquito",
        "band": {
            "id": "6",
            "name": "Cruz Cafuné"
                },

        "year": 2018,
        "label": {
            "id": "SR",
            "name": "Self-released"
                },
        "genre": {
            "id": "HH",
            "description": "Hip Hop"
                }
        
    },
    {
        "id": "3",
        "name": "Facil",
        "band": {
            "id": "7",
            "name": "Maldita Nerea"
                },

        "year": 2011,
        "label": {
            "id": "SR",
            "name": "Self-released"
                },
        "genre": {
            "id": "PE",
            "description": "Pop Espanol"
                }
        
    }]
}